C:/TouchGFXProjects/prueba/Core/Src/main.c:1146:13:SPI5_Write	16	static
C:/TouchGFXProjects/prueba/Core/Src/main.c:1258:6:StartDefaultTask	8	static
C:/TouchGFXProjects/prueba/Core/Src/main.c:173:5:_write	8	static
C:/TouchGFXProjects/prueba/Core/Src/main.c:990:6:IOE_Init	0	static
C:/TouchGFXProjects/prueba/Core/Src/main.c:999:6:IOE_ITConfig	0	static
C:/TouchGFXProjects/prueba/Core/Src/main.c:1011:6:IOE_Write	32	static
C:/TouchGFXProjects/prueba/Core/Src/main.c:1022:9:IOE_Read	32	static
C:/TouchGFXProjects/prueba/Core/Src/main.c:1035:10:IOE_ReadMultiple	24	static
C:/TouchGFXProjects/prueba/Core/Src/main.c:1044:6:IOE_Delay	0	static
C:/TouchGFXProjects/prueba/Core/Src/main.c:1172:6:LCD_IO_Init	8	static
C:/TouchGFXProjects/prueba/Core/Src/main.c:1182:6:LCD_IO_WriteData	16	static
C:/TouchGFXProjects/prueba/Core/Src/main.c:1198:6:LCD_IO_WriteReg	16	static
C:/TouchGFXProjects/prueba/Core/Src/main.c:1217:10:LCD_IO_ReadData	32	static
C:/TouchGFXProjects/prueba/Core/Src/main.c:1244:6:LCD_Delay	0	static
C:/TouchGFXProjects/prueba/Core/Src/main.c:1280:6:HAL_TIM_PeriodElapsedCallback	0	static
C:/TouchGFXProjects/prueba/Core/Src/main.c:1297:6:Error_Handler	0	static
C:/TouchGFXProjects/prueba/Core/Src/main.c:286:6:SystemClock_Config	88	static
C:/TouchGFXProjects/prueba/Core/Src/main.c:183:5:main	128	static
