C:/TouchGFXProjects/prueba/Drivers/STM32F4xx_HAL_Driver/Src/stm32f4xx_hal_rcc.c:202:26:HAL_RCC_DeInit	0	static
C:/TouchGFXProjects/prueba/Drivers/STM32F4xx_HAL_Driver/Src/stm32f4xx_hal_rcc.c:221:26:HAL_RCC_OscConfig	32	static
C:/TouchGFXProjects/prueba/Drivers/STM32F4xx_HAL_Driver/Src/stm32f4xx_hal_rcc.c:777:6:HAL_RCC_MCOConfig	48	static
C:/TouchGFXProjects/prueba/Drivers/STM32F4xx_HAL_Driver/Src/stm32f4xx_hal_rcc.c:843:6:HAL_RCC_EnableCSS	0	static
C:/TouchGFXProjects/prueba/Drivers/STM32F4xx_HAL_Driver/Src/stm32f4xx_hal_rcc.c:852:6:HAL_RCC_DisableCSS	0	static
C:/TouchGFXProjects/prueba/Drivers/STM32F4xx_HAL_Driver/Src/stm32f4xx_hal_rcc.c:887:17:HAL_RCC_GetSysClockFreq	8	static
C:/TouchGFXProjects/prueba/Drivers/STM32F4xx_HAL_Driver/Src/stm32f4xx_hal_rcc.c:593:19:HAL_RCC_ClockConfig	24	static
C:/TouchGFXProjects/prueba/Drivers/STM32F4xx_HAL_Driver/Src/stm32f4xx_hal_rcc.c:943:10:HAL_RCC_GetHCLKFreq	0	static
C:/TouchGFXProjects/prueba/Drivers/STM32F4xx_HAL_Driver/Src/stm32f4xx_hal_rcc.c:954:10:HAL_RCC_GetPCLK1Freq	0	static
C:/TouchGFXProjects/prueba/Drivers/STM32F4xx_HAL_Driver/Src/stm32f4xx_hal_rcc.c:966:10:HAL_RCC_GetPCLK2Freq	0	static
C:/TouchGFXProjects/prueba/Drivers/STM32F4xx_HAL_Driver/Src/stm32f4xx_hal_rcc.c:979:13:HAL_RCC_GetOscConfig	0	static
C:/TouchGFXProjects/prueba/Drivers/STM32F4xx_HAL_Driver/Src/stm32f4xx_hal_rcc.c:1058:6:HAL_RCC_GetClockConfig	0	static
C:/TouchGFXProjects/prueba/Drivers/STM32F4xx_HAL_Driver/Src/stm32f4xx_hal_rcc.c:1101:13:HAL_RCC_CSSCallback	0	static
C:/TouchGFXProjects/prueba/Drivers/STM32F4xx_HAL_Driver/Src/stm32f4xx_hal_rcc.c:1084:6:HAL_RCC_NMI_IRQHandler	8	static
