C:/TouchGFXProjects/prueba/Drivers/STM32F4xx_HAL_Driver/Src/stm32f4xx_hal_spi.c:3857:13:SPI_AbortRx_ISR	8	static
C:/TouchGFXProjects/prueba/Drivers/STM32F4xx_HAL_Driver/Src/stm32f4xx_hal_spi.c:3893:13:SPI_AbortTx_ISR	0	static
C:/TouchGFXProjects/prueba/Drivers/STM32F4xx_HAL_Driver/Src/stm32f4xx_hal_spi.c:3481:26:SPI_WaitFlagStateUntilTimeout.constprop	32	static
C:/TouchGFXProjects/prueba/Drivers/STM32F4xx_HAL_Driver/Src/stm32f4xx_hal_spi.c:3548:26:SPI_EndRxTransaction	16	static
C:/TouchGFXProjects/prueba/Drivers/STM32F4xx_HAL_Driver/Src/stm32f4xx_hal_spi.c:3598:26:SPI_EndRxTxTransaction	24	static
C:/TouchGFXProjects/prueba/Drivers/STM32F4xx_HAL_Driver/Src/stm32f4xx_hal_spi.c:483:13:HAL_SPI_MspInit	0	static
C:/TouchGFXProjects/prueba/Drivers/STM32F4xx_HAL_Driver/Src/stm32f4xx_hal_spi.c:313:19:HAL_SPI_Init	8	static
C:/TouchGFXProjects/prueba/Drivers/STM32F4xx_HAL_Driver/Src/stm32f4xx_hal_spi.c:499:13:HAL_SPI_MspDeInit	0	static
C:/TouchGFXProjects/prueba/Drivers/STM32F4xx_HAL_Driver/Src/stm32f4xx_hal_spi.c:439:19:HAL_SPI_DeInit	8	static
C:/TouchGFXProjects/prueba/Drivers/STM32F4xx_HAL_Driver/Src/stm32f4xx_hal_spi.c:771:19:HAL_SPI_Transmit	32	static
C:/TouchGFXProjects/prueba/Drivers/STM32F4xx_HAL_Driver/Src/stm32f4xx_hal_spi.c:1134:19:HAL_SPI_TransmitReceive	40	static
C:/TouchGFXProjects/prueba/Drivers/STM32F4xx_HAL_Driver/Src/stm32f4xx_hal_spi.c:936:19:HAL_SPI_Receive	40	static
C:/TouchGFXProjects/prueba/Drivers/STM32F4xx_HAL_Driver/Src/stm32f4xx_hal_spi.c:1358:19:HAL_SPI_Transmit_IT	0	static
C:/TouchGFXProjects/prueba/Drivers/STM32F4xx_HAL_Driver/Src/stm32f4xx_hal_spi.c:1537:19:HAL_SPI_TransmitReceive_IT	12	static
C:/TouchGFXProjects/prueba/Drivers/STM32F4xx_HAL_Driver/Src/stm32f4xx_hal_spi.c:1443:19:HAL_SPI_Receive_IT	12	static
C:/TouchGFXProjects/prueba/Drivers/STM32F4xx_HAL_Driver/Src/stm32f4xx_hal_spi.c:1625:19:HAL_SPI_Transmit_DMA	16	static
C:/TouchGFXProjects/prueba/Drivers/STM32F4xx_HAL_Driver/Src/stm32f4xx_hal_spi.c:1848:19:HAL_SPI_TransmitReceive_DMA	16	static
C:/TouchGFXProjects/prueba/Drivers/STM32F4xx_HAL_Driver/Src/stm32f4xx_hal_spi.c:1733:19:HAL_SPI_Receive_DMA	24	static
C:/TouchGFXProjects/prueba/Drivers/STM32F4xx_HAL_Driver/Src/stm32f4xx_hal_spi.c:1994:19:HAL_SPI_Abort	24	static
C:/TouchGFXProjects/prueba/Drivers/STM32F4xx_HAL_Driver/Src/stm32f4xx_hal_spi.c:2300:19:HAL_SPI_DMAPause	0	static
C:/TouchGFXProjects/prueba/Drivers/STM32F4xx_HAL_Driver/Src/stm32f4xx_hal_spi.c:2320:19:HAL_SPI_DMAResume	0	static
C:/TouchGFXProjects/prueba/Drivers/STM32F4xx_HAL_Driver/Src/stm32f4xx_hal_spi.c:2340:19:HAL_SPI_DMAStop	16	static
C:/TouchGFXProjects/prueba/Drivers/STM32F4xx_HAL_Driver/Src/stm32f4xx_hal_spi.c:2487:13:HAL_SPI_TxCpltCallback	0	static
C:/TouchGFXProjects/prueba/Drivers/STM32F4xx_HAL_Driver/Src/stm32f4xx_hal_spi.c:2503:13:HAL_SPI_RxCpltCallback	0	static
C:/TouchGFXProjects/prueba/Drivers/STM32F4xx_HAL_Driver/Src/stm32f4xx_hal_spi.c:2519:13:HAL_SPI_TxRxCpltCallback	0	static
C:/TouchGFXProjects/prueba/Drivers/STM32F4xx_HAL_Driver/Src/stm32f4xx_hal_spi.c:2535:13:HAL_SPI_TxHalfCpltCallback	0	static
C:/TouchGFXProjects/prueba/Drivers/STM32F4xx_HAL_Driver/Src/stm32f4xx_hal_spi.c:2899:13:SPI_DMAHalfTransmitCplt	8	static
C:/TouchGFXProjects/prueba/Drivers/STM32F4xx_HAL_Driver/Src/stm32f4xx_hal_spi.c:2551:13:HAL_SPI_RxHalfCpltCallback	0	static
C:/TouchGFXProjects/prueba/Drivers/STM32F4xx_HAL_Driver/Src/stm32f4xx_hal_spi.c:2917:13:SPI_DMAHalfReceiveCplt	8	static
C:/TouchGFXProjects/prueba/Drivers/STM32F4xx_HAL_Driver/Src/stm32f4xx_hal_spi.c:2567:13:HAL_SPI_TxRxHalfCpltCallback	0	static
C:/TouchGFXProjects/prueba/Drivers/STM32F4xx_HAL_Driver/Src/stm32f4xx_hal_spi.c:2935:13:SPI_DMAHalfTransmitReceiveCplt	8	static
C:/TouchGFXProjects/prueba/Drivers/STM32F4xx_HAL_Driver/Src/stm32f4xx_hal_spi.c:2583:13:HAL_SPI_ErrorCallback	0	static
C:/TouchGFXProjects/prueba/Drivers/STM32F4xx_HAL_Driver/Src/stm32f4xx_hal_spi.c:3796:13:SPI_CloseTx_ISR	16	static
C:/TouchGFXProjects/prueba/Drivers/STM32F4xx_HAL_Driver/Src/stm32f4xx_hal_spi.c:3426:13:SPI_TxISR_8BIT	0	static
C:/TouchGFXProjects/prueba/Drivers/STM32F4xx_HAL_Driver/Src/stm32f4xx_hal_spi.c:3451:13:SPI_TxISR_16BIT	4	static
C:/TouchGFXProjects/prueba/Drivers/STM32F4xx_HAL_Driver/Src/stm32f4xx_hal_spi.c:3733:13:SPI_CloseRx_ISR	16	static
C:/TouchGFXProjects/prueba/Drivers/STM32F4xx_HAL_Driver/Src/stm32f4xx_hal_spi.c:3337:13:SPI_RxISR_8BIT	0	static
C:/TouchGFXProjects/prueba/Drivers/STM32F4xx_HAL_Driver/Src/stm32f4xx_hal_spi.c:3393:13:SPI_RxISR_16BIT	0	static
C:/TouchGFXProjects/prueba/Drivers/STM32F4xx_HAL_Driver/Src/stm32f4xx_hal_spi.c:3638:13:SPI_CloseRxTx_ISR	16	static
C:/TouchGFXProjects/prueba/Drivers/STM32F4xx_HAL_Driver/Src/stm32f4xx_hal_spi.c:3185:13:SPI_2linesTxISR_8BIT	0	static
C:/TouchGFXProjects/prueba/Drivers/STM32F4xx_HAL_Driver/Src/stm32f4xx_hal_spi.c:3122:13:SPI_2linesRxISR_8BIT	0	static
C:/TouchGFXProjects/prueba/Drivers/STM32F4xx_HAL_Driver/Src/stm32f4xx_hal_spi.c:3277:13:SPI_2linesTxISR_16BIT	4	static
C:/TouchGFXProjects/prueba/Drivers/STM32F4xx_HAL_Driver/Src/stm32f4xx_hal_spi.c:3221:13:SPI_2linesRxISR_16BIT	4	static
C:/TouchGFXProjects/prueba/Drivers/STM32F4xx_HAL_Driver/Src/stm32f4xx_hal_spi.c:2953:13:SPI_DMAError	8	static
C:/TouchGFXProjects/prueba/Drivers/STM32F4xx_HAL_Driver/Src/stm32f4xx_hal_spi.c:2673:13:SPI_DMATransmitCplt	24	static
C:/TouchGFXProjects/prueba/Drivers/STM32F4xx_HAL_Driver/Src/stm32f4xx_hal_spi.c:2730:13:SPI_DMAReceiveCplt	16	static
C:/TouchGFXProjects/prueba/Drivers/STM32F4xx_HAL_Driver/Src/stm32f4xx_hal_spi.c:2819:13:SPI_DMATransmitReceiveCplt	16	static
C:/TouchGFXProjects/prueba/Drivers/STM32F4xx_HAL_Driver/Src/stm32f4xx_hal_spi.c:2380:6:HAL_SPI_IRQHandler	40	static
C:/TouchGFXProjects/prueba/Drivers/STM32F4xx_HAL_Driver/Src/stm32f4xx_hal_spi.c:2976:13:SPI_DMAAbortOnError	8	static
C:/TouchGFXProjects/prueba/Drivers/STM32F4xx_HAL_Driver/Src/stm32f4xx_hal_spi.c:2601:13:HAL_SPI_AbortCpltCallback	0	static
C:/TouchGFXProjects/prueba/Drivers/STM32F4xx_HAL_Driver/Src/stm32f4xx_hal_spi.c:2139:19:HAL_SPI_Abort_IT	32	static
C:/TouchGFXProjects/prueba/Drivers/STM32F4xx_HAL_Driver/Src/stm32f4xx_hal_spi.c:3063:13:SPI_DMARxAbortCallback	16	static
C:/TouchGFXProjects/prueba/Drivers/STM32F4xx_HAL_Driver/Src/stm32f4xx_hal_spi.c:2998:13:SPI_DMATxAbortCallback	24	static
C:/TouchGFXProjects/prueba/Drivers/STM32F4xx_HAL_Driver/Src/stm32f4xx_hal_spi.c:2636:22:HAL_SPI_GetState	0	static
C:/TouchGFXProjects/prueba/Drivers/STM32F4xx_HAL_Driver/Src/stm32f4xx_hal_spi.c:2648:10:HAL_SPI_GetError	0	static
