C:/TouchGFXProjects/prueba/Drivers/STM32F4xx_HAL_Driver/Src/stm32f4xx_hal_dma_ex.c:101:19:HAL_DMAEx_MultiBufferStart	12	static
C:/TouchGFXProjects/prueba/Drivers/STM32F4xx_HAL_Driver/Src/stm32f4xx_hal_dma_ex.c:155:19:HAL_DMAEx_MultiBufferStart_IT	16	static
C:/TouchGFXProjects/prueba/Drivers/STM32F4xx_HAL_Driver/Src/stm32f4xx_hal_dma_ex.c:240:19:HAL_DMAEx_ChangeMemory	0	static
